Digital_System_Design/Exam/Exam.sim/sim_1/behav/xsim/tb_task1_1.vcd
$date
   Tue Nov 26 13:26:42 2024
$end
$version
  2019.1
$end
$timescale
  1ps
$end
$scope module tb_task1_1 $end
$var reg 1 ! clk $end
$var reg 1 " reset $end
$var reg 8 # count [7:0] $end
$var reg 1 $ overflow $end
$scope module uut $end
$var wire 1 % clk $end
$var wire 1 & reset $end
$var reg 8 # count [7:0] $end
$var reg 1 $ overflow $end
$upscope $end
$upscope $end
$enddefinitions $end
#0
$dumpvars
0!
0"
b0 #
0$
0%
0&
$end
#5000
1!
1%
#10000
0!
1"
0%
1&
#15000
1!
b1 #
1%
#20000
0!
0%
#25000
1!
b10 #
1%
#30000
0!
0%
#35000
1!
b11 #
1%
#40000
0!
0%
#45000
1!
b100 #
1%
#50000
0!
0%
#55000
1!
b101 #
1%
#60000
0!
0%
#65000
1!
b110 #
1%
#70000
0!
0%
#75000
1!
b111 #
1%
#80000
0!
0%
#85000
1!
b1000 #
1%
#90000
0!
0%
#95000
1!
b1001 #
1%
#100000
0!
0%
#105000
1!
b1010 #
1%
#110000
0!
0%
#115000
1!
b1011 #
1%
#120000
0!
0%
#125000
1!
b1100 #
1%
#130000
0!
0%
#135000
1!
b1101 #
1%
#140000
0!
0%
#145000
1!
b1110 #
1%
#150000
0!
0%
#155000
1!
b1111 #
1%
#160000
0!
0%
#165000
1!
b10000 #
1%
#170000
0!
0%
#175000
1!
b10001 #
1%
#180000
0!
0%
#185000
1!
b10010 #
1%
#190000
0!
0%
#195000
1!
b10011 #
1%
#200000
0!
0%
#205000
1!
b10100 #
1%
#210000
0!
0%
#215000
1!
b10101 #
1%
#220000
0!
0%
#225000
1!
b10110 #
1%
#230000
0!
0%
#235000
1!
b10111 #
1%
#240000
0!
0%
#245000
1!
b11000 #
1%
#250000
0!
0%
#255000
1!
b11001 #
1%
#260000
0!
0%
#265000
1!
b11010 #
1%
#270000
0!
0%
#275000
1!
b11011 #
1%
#280000
0!
0%
#285000
1!
b11100 #
1%
#290000
0!
0%
#295000
1!
b11101 #
1%
#300000
0!
0%
#305000
1!
b11110 #
1%
#310000
0!
0%
#315000
1!
b11111 #
1%
#320000
0!
0%
#325000
1!
b100000 #
1%
#330000
0!
0%
#335000
1!
b100001 #
1%
#340000
0!
0%
#345000
1!
b100010 #
1%
#350000
0!
0%
#355000
1!
b100011 #
1%
#360000
0!
0%
#365000
1!
b100100 #
1%
#370000
0!
0%
#375000
1!
b100101 #
1%
#380000
0!
0%
#385000
1!
b100110 #
1%
#390000
0!
0%
#395000
1!
b100111 #
1%
#400000
0!
0%
#405000
1!
b101000 #
1%
#410000
0!
0%
#415000
1!
b101001 #
1%
#420000
0!
0%
#425000
1!
b101010 #
1%
#430000
0!
0%
#435000
1!
b101011 #
1%
#440000
0!
0%
#445000
1!
b101100 #
1%
#450000
0!
0%
#455000
1!
b101101 #
1%
#460000
0!
0%
#465000
1!
b101110 #
1%
#470000
0!
0%
#475000
1!
b101111 #
1%
#480000
0!
0%
#485000
1!
b110000 #
1%
#490000
0!
0%
#495000
1!
b110001 #
1%
#500000
0!
0%
#505000
1!
b110010 #
1%
#510000
0!
0%
#515000
1!
b110011 #
1%
#520000
0!
0%
#525000
1!
b110100 #
1%
#530000
0!
0%
#535000
1!
b110101 #
1%
#540000
0!
0%
#545000
1!
b110110 #
1%
#550000
0!
0%
#555000
1!
b110111 #
1%
#560000
0!
0%
#565000
1!
b111000 #
1%
#570000
0!
0%
#575000
1!
b111001 #
1%
#580000
0!
0%
#585000
1!
b111010 #
1%
#590000
0!
0%
#595000
1!
b111011 #
1%
#600000
0!
0%
#605000
1!
b111100 #
1%
#610000
0!
0%
#615000
1!
b111101 #
1%
#620000
0!
0%
#625000
1!
b111110 #
1%
#630000
0!
0%
#635000
1!
b111111 #
1%
#640000
0!
0%
#645000
1!
b1000000 #
1%
#650000
0!
0%
#655000
1!
b1000001 #
1%
#660000
0!
0%
#665000
1!
b1000010 #
1%
#670000
0!
0%
#675000
1!
b1000011 #
1%
#680000
0!
0%
#685000
1!
b1000100 #
1%
#690000
0!
0%
#695000
1!
b1000101 #
1%
#700000
0!
0%
#705000
1!
b1000110 #
1%
#710000
0!
0%
#715000
1!
b1000111 #
1%
#720000
0!
0%
#725000
1!
b1001000 #
1%
#730000
0!
0%
#735000
1!
b1001001 #
1%
#740000
0!
0%
#745000
1!
b1001010 #
1%
#750000
0!
0%
#755000
1!
b1001011 #
1%
#760000
0!
0%
#765000
1!
b1001100 #
1%
#770000
0!
0%
#775000
1!
b1001101 #
1%
#780000
0!
0%
#785000
1!
b1001110 #
1%
#790000
0!
0%
#795000
1!
b1001111 #
1%
#800000
0!
0%
#805000
1!
b1010000 #
1%
#810000
0!
0%
#815000
1!
b1010001 #
1%
#820000
0!
0%
#825000
1!
b1010010 #
1%
#830000
0!
0%
#835000
1!
b1010011 #
1%
#840000
0!
0%
#845000
1!
b1010100 #
1%
#850000
0!
0%
#855000
1!
b1010101 #
1%
#860000
0!
0%
#865000
1!
b1010110 #
1%
#870000
0!
0%
#875000
1!
b1010111 #
1%
#880000
0!
0%
#885000
1!
b1011000 #
1%
#890000
0!
0%
#895000
1!
b1011001 #
1%
#900000
0!
0%
#905000
1!
b1011010 #
1%
#910000
0!
0%
#915000
1!
b1011011 #
1%
#920000
0!
0%
#925000
1!
b1011100 #
1%
#930000
0!
0%
#935000
1!
b1011101 #
1%
#940000
0!
0%
#945000
1!
b1011110 #
1%
#950000
0!
0%
#955000
1!
b1011111 #
1%
#960000
0!
0%
#965000
1!
b1100000 #
1%
#970000
0!
0%
#975000
1!
b1100001 #
1%
#980000
0!
0%
#985000
1!
b1100010 #
1%
#990000
0!
0%
#995000
1!
b1100011 #
1%
